^C:\CALSSES\C++ - SEOCEND YEAR - SEOCEND SEMESTER\LESSON 8 - TRIVIA PROJECT\PART1\TRIVIA\TRIVIA\X64\DEBUG\DATABASE.OBJ|C:\CALSSES\C++ - SEOCEND YEAR - SEOCEND SEMESTER\LESSON 8 - TRIVIA PROJECT\PART1\TRIVIA\TRIVIA\X64\DEBUG\GAME.OBJ|C:\CALSSES\C++ - SEOCEND YEAR - SEOCEND SEMESTER\LESSON 8 - TRIVIA PROJECT\PART1\TRIVIA\TRIVIA\X64\DEBUG\HELPER.OBJ|C:\CALSSES\C++ - SEOCEND YEAR - SEOCEND SEMESTER\LESSON 8 - TRIVIA PROJECT\PART1\TRIVIA\TRIVIA\X64\DEBUG\MAIN.OBJ|C:\CALSSES\C++ - SEOCEND YEAR - SEOCEND SEMESTER\LESSON 8 - TRIVIA PROJECT\PART1\TRIVIA\TRIVIA\X64\DEBUG\QUESTION.OBJ|C:\CALSSES\C++ - SEOCEND YEAR - SEOCEND SEMESTER\LESSON 8 - TRIVIA PROJECT\PART1\TRIVIA\TRIVIA\X64\DEBUG\RECIEVEDMESSAGE.OBJ|C:\CALSSES\C++ - SEOCEND YEAR - SEOCEND SEMESTER\LESSON 8 - TRIVIA PROJECT\PART1\TRIVIA\TRIVIA\X64\DEBUG\ROOM.OBJ|C:\CALSSES\C++ - SEOCEND YEAR - SEOCEND SEMESTER\LESSON 8 - TRIVIA PROJECT\PART1\TRIVIA\TRIVIA\X64\DEBUG\TRIVIASERVER.OBJ|C:\CALSSES\C++ - SEOCEND YEAR - SEOCEND SEMESTER\LESSON 8 - TRIVIA PROJECT\PART1\TRIVIA\TRIVIA\X64\DEBUG\USER.OBJ|C:\CALSSES\C++ - SEOCEND YEAR - SEOCEND SEMESTER\LESSON 8 - TRIVIA PROJECT\PART1\TRIVIA\TRIVIA\X64\DEBUG\VALIDATOR.OBJ|C:\CALSSES\C++ - SEOCEND YEAR - SEOCEND SEMESTER\LESSON 8 - TRIVIA PROJECT\PART1\TRIVIA\TRIVIA\X64\DEBUG\WSAINITIALIZER.OBJ
C:\CALSSES\C++ - SEOCEND YEAR - SEOCEND SEMESTER\LESSON 8 - TRIVIA PROJECT\PART1\TRIVIA\X64\DEBUG\TRIVIA.EXE
C:\CALSSES\C++ - SEOCEND YEAR - SEOCEND SEMESTER\LESSON 8 - TRIVIA PROJECT\PART1\TRIVIA\X64\DEBUG\TRIVIA.ILK
C:\CALSSES\C++ - SEOCEND YEAR - SEOCEND SEMESTER\LESSON 8 - TRIVIA PROJECT\PART1\TRIVIA\X64\DEBUG\TRIVIA.PDB
